MD,ILD,freq
0.0,5.307595757275987,0.5084745762711864
0.1,5.323132110233596,0.5084745762711864
0.2,5.337657988106498,0.5310734463276836
0.3,5.329618088570564,0.5536723163841808
0.4,5.320498509606019,0.5875706214689266
0.5,5.32944300159759,0.5875706214689266
0.6,5.342850382850369,0.5932203389830508
0.7,5.353207150448459,0.6045197740112994
0.8,5.369777611485244,0.6271186440677966
0.9,5.3662061612750485,0.6440677966101694
1.0,5.3246965469659955,0.6440677966101694
1.1,5.324703979844422,0.6610169491525424
1.2,5.3255305095060965,0.6779661016949152
1.3,5.3253130581137285,0.6949152542372882
1.4,5.336184693822894,0.6949152542372882
1.5,5.32990801850604,0.7062146892655368
1.6,5.343531456514203,0.7231638418079096
1.7,5.321581276976411,0.7288135593220338
1.8,5.319166293594226,0.7344632768361582
1.9,5.304975779837602,0.751412429378531
2.0,5.324712923729966,0.7570621468926554
2.1,5.353010983431309,0.7796610169491526
2.2,5.376201021730685,0.7909604519774012
2.3,5.378023770945253,0.8135593220338984
2.4,5.385200022726502,0.847457627118644
2.5,5.410693832960971,0.8700564971751412
2.6,5.410837280018332,0.8757062146892656
2.7,5.377452534053556,0.8757062146892656
2.8,5.362356850935462,0.8813559322033898
2.9,5.341845380581422,0.8983050847457628
3.0,5.283294725009064,0.8983050847457628
3.1,5.20633970200622,0.903954802259887
3.2,5.150203301047397,0.903954802259887
3.3,5.090530747324882,0.903954802259887
3.4,5.032543449897455,0.903954802259887
3.5,4.974537649894294,0.9152542372881356
3.6,4.96289950277255,0.9152542372881356
3.7,4.951577768515678,0.9152542372881356
3.8,4.942564154321714,0.9152542372881356
3.9,4.932523693682669,0.9209039548022598
4.0,4.877588020376845,0.9152542372881356
4.1,4.86791769123924,0.9209039548022598
4.2,4.853356679810023,0.9152542372881356
4.3,4.865037317508457,0.9152542372881356
4.4,4.882081287709901,0.9152542372881356
4.5,4.873536402549089,0.9491525423728814
4.6,4.8392180665940785,0.9548022598870056
4.7,4.848425462146375,0.9548022598870056
4.8,4.856367878837175,0.9548022598870056
4.9,4.838348205018607,0.9548022598870056
5.0,4.854586028138912,0.9548022598870056
5.1,4.881163322930166,0.9096045197740112
5.2,4.859599477532997,0.943502824858757
5.3,4.849597083995202,0.9491525423728814
5.4,4.870486996456852,0.9491525423728814
5.5,4.911195714409383,0.9548022598870056
5.6,4.961901365372533,0.9661016949152542
5.7,4.939569077178463,0.9548022598870056
5.8,4.933178947230612,0.9548022598870056
5.9,4.944075625124436,0.9548022598870056
6.0,4.91290279226044,0.96045197740113
6.1,4.887012615430907,0.9661016949152542
6.2,4.9049977218223875,0.9548022598870056
6.3,4.910763391510529,0.9774011299435028
6.4,4.912386724133632,0.9774011299435028
6.5,4.900763581106344,0.9774011299435028
6.6,4.87332940447072,0.9830508474576272
6.7,4.860680117278737,0.9661016949152542
6.8,4.875513813757545,0.9661016949152542
6.9,4.9149590749207395,0.9830508474576272
7.0,4.959995915633794,0.9943502824858758
7.1,4.98795451965323,0.9943502824858758
7.2,5.007189569115974,0.9943502824858758
7.3,5.0182878747972275,0.9943502824858758
7.4,4.993007013070476,0.9943502824858758
7.5,4.974124172078257,0.9943502824858758
7.6,4.932611810564679,0.9943502824858758
7.7,4.95167679006451,0.9943502824858758
7.8,4.976894992747372,0.9943502824858758
7.9,5.004276908800884,0.9887005649717514
8.0,4.9865345826985426,0.9943502824858758
8.1,4.9678893671917015,0.9943502824858758
8.2,4.974483590076064,0.9943502824858758
8.3,4.961455003199771,0.9943502824858758
8.4,4.9574144568428125,0.9887005649717514
8.5,4.983471358313734,0.9943502824858758
8.6,4.995759607581749,0.9887005649717514
8.7,4.988162945767228,0.9887005649717514
8.8,4.986994597501726,0.9887005649717514
8.9,4.982641195670933,0.9943502824858758
9.0,4.985621570249175,1.0
9.1,4.995379204714166,1.0
9.2,4.999243100008338,0.9830508474576272
9.3,4.9647875232253424,0.9887005649717514
9.4,4.952182934648021,1.0
9.5,4.965297089448711,0.9943502824858758
9.6,4.978496636571598,0.9943502824858758
9.7,5.013191375362953,0.9717514124293786
9.8,4.975449575901755,0.9774011299435028
9.9,4.930057165583052,0.9774011299435028
10.0,4.938052927025167,0.9887005649717514
10.1,4.907252240918288,0.9943502824858758
10.2,4.8711524010520595,1.0
10.3,4.897873031908075,1.0
10.4,4.877987384170226,1.0
10.5,4.876912096778113,1.0
10.6,4.857095279963897,1.0
10.7,4.841005066675135,0.9887005649717514
10.8,4.820175115831396,0.9887005649717514
10.9,4.801088290048536,0.9943502824858758
11.0,4.822038602826841,0.9943502824858758
11.1,4.84611548708922,0.9887005649717514
11.2,4.892162960893507,0.9943502824858758
11.3,4.891326190643478,1.0
11.4,4.912159397806378,1.0
11.5,4.905814573038846,0.9152542372881356
11.6,4.8922088047839924,0.9661016949152542
11.7,4.914684439819002,0.9943502824858758
11.8,4.941450374330141,1.0
11.9,4.961027932509409,1.0
12.0,5.0006029280484645,0.9661016949152542
12.1,4.992896209666011,0.9717514124293786
12.2,5.0078274674482355,0.9548022598870056
12.3,5.0078664318355495,0.9774011299435028
12.4,5.038240769703349,0.9774011299435028
12.5,5.07295430872446,0.9774011299435028
12.6,5.081613904434823,0.9830508474576272
12.7,5.099740702225079,0.9830508474576272
12.8,5.071142986020751,0.8700564971751412
12.9,5.099378033572098,0.9774011299435028
13.0,5.103957253025881,0.9943502824858758
13.1,5.112872643974883,0.9943502824858758
13.2,5.11344998433674,0.9943502824858758
13.3,5.118700771969574,0.9943502824858758
13.4,5.153654060380265,1.0
13.5,5.162338866405231,0.9717514124293786
13.6,5.179254367754982,0.9774011299435028
13.7,5.165729279633322,0.9774011299435028
13.8,5.155854201038083,0.9943502824858758
13.9,5.159213746037902,0.9943502824858758
14.0,5.1658617917566385,1.0
14.1,5.1656670508658475,1.0
14.2,5.144663617823569,1.0
14.3,5.113731107004969,0.9887005649717514
14.4,5.09846023663149,0.9943502824858758
14.5,5.098649613361079,1.0
14.6,5.110784375891281,1.0
14.7,5.113209536476589,1.0
14.8,5.099677267133222,0.9943502824858758
14.9,5.070743201452244,1.0
15.0,5.038956587172605,1.0
15.1,5.024044243604784,1.0
15.2,4.99807344533698,0.9491525423728814
15.3,4.988250839339653,0.9548022598870056
15.4,4.9821867607006975,0.9548022598870056
15.5,4.9446713242811215,0.9491525423728814
15.6,4.981335489185001,0.9548022598870056
15.7,5.017804880919544,0.9774011299435028
15.8,5.049374148950761,1.0
15.9,5.039429471083511,1.0
16.0,4.981359857821704,1.0
16.1,4.96056589319172,1.0
16.2,4.979301600808357,1.0
16.3,4.96953870431739,1.0
16.4,4.952366407349831,1.0
16.5,4.944732611658903,1.0
16.6,4.9513975327860456,0.9887005649717514
16.7,4.959137310125339,0.9943502824858758
16.8,4.939088970365528,0.9943502824858758
16.9,4.933882531312812,1.0
17.0,4.951963308496127,0.9717514124293786
17.1,4.9550538936406,0.9830508474576272
17.2,4.959426535905366,0.9943502824858758
17.3,4.926285563812016,0.9943502824858758
17.4,4.903107120543521,0.9943502824858758
17.5,4.901501270831008,0.9943502824858758
17.6,4.888228752277299,0.9943502824858758
17.7,4.872510753976833,0.9887005649717514
17.8,4.8680759665244935,1.0
17.9,4.903103042117302,0.9943502824858758
18.0,4.925484979365731,0.9943502824858758
18.1,4.957513471915633,0.9943502824858758
18.2,5.004409045464809,0.9887005649717514
18.3,5.035986478311455,0.9887005649717514
18.4,5.061162232451514,0.9887005649717514
18.5,5.038464787058239,0.9887005649717514
18.6,4.975008771917526,0.9774011299435028
18.7,4.939088593833101,0.9830508474576272
18.8,4.946438363272628,0.9887005649717514
18.9,4.991850980491088,0.9943502824858758
19.0,5.034751375006065,1.0
19.1,5.075737097496178,1.0
19.2,5.125399632227,1.0
19.3,5.12761014097394,1.0
19.4,5.055408890716565,0.9887005649717514
19.5,4.970521697501902,0.9717514124293786
19.6,4.8358155491549,0.9774011299435028
19.7,4.696096771847627,0.9774011299435028
19.8,4.609520524526567,0.9774011299435028
19.9,4.541300152407969,0.9887005649717514
20.0,4.4167686371932975,0.9943502824858758
20.1,4.319865401634839,0.9943502824858758
20.2,4.226132989842855,1.0
20.3,4.1728178161803395,1.0
20.4,4.136967762338154,0.9943502824858758
20.5,4.092296741346364,0.9887005649717514
20.6,4.063669155037418,0.9943502824858758
20.7,4.029213920011646,0.9943502824858758
20.8,3.9926348584065483,1.0
20.9,3.9083426342806447,1.0
21.0,3.8594356711486055,1.0
21.1,3.845530191487785,1.0
21.2,3.83574118000613,1.0
21.3,3.859805281515537,0.9887005649717514
21.4,3.8578921793693963,0.9887005649717514
21.5,3.8865114542604142,0.9943502824858758
21.6,3.9276006737962503,0.9943502824858758
21.7,3.900996671582716,0.8361581920903954
21.8,3.907946175694076,0.96045197740113
21.9,3.938644764117996,0.9661016949152542
22.0,3.9258127678611436,0.9491525423728814
22.1,3.9102666503008154,0.9887005649717514
22.2,3.8964274809245425,0.9943502824858758
22.3,3.88697744161715,0.9887005649717514
22.4,3.8453832767324765,0.9774011299435028
22.5,3.8165187888696392,0.9830508474576272
22.6,3.8028643223931744,0.9887005649717514
22.7,3.7663592088950195,0.9887005649717514
22.8,3.765159276037717,0.9943502824858758
22.9,3.819213700066571,1.0
23.0,3.8492694822724918,1.0
23.1,3.862726973587495,0.9943502824858758
23.2,3.9015774757578225,0.9548022598870056
23.3,3.9139699960003775,0.9717514124293786
23.4,3.9518095958714663,0.9943502824858758
23.5,3.9760168278281345,0.9943502824858758
23.6,4.003192846196656,0.9943502824858758
23.7,4.041088453753855,0.9830508474576272
23.8,4.064719364971371,1.0
23.9,4.128000436221965,1.0
24.0,4.157364093787982,0.9943502824858758
24.1,4.170620395625074,1.0
24.2,4.176518990936802,1.0
24.3,4.164417507887784,1.0
24.4,4.147951406867696,1.0
24.5,4.064893671183159,1.0
24.6,3.979127438137163,0.903954802259887
24.7,3.9064497986737026,0.96045197740113
24.8,3.8122262182610958,0.9830508474576272
24.9,3.7350439479861883,0.9887005649717514
25.0,3.700655342610815,0.9943502824858758
25.1,3.6839346012965155,0.9943502824858758
25.2,3.7075408139232544,0.9830508474576272
25.3,3.7616992732819816,0.9887005649717514
25.4,3.7792179939857506,0.9887005649717514
25.5,3.7858893743776445,1.0
25.6,3.8293858896669715,1.0
25.7,3.8336004666353136,1.0
25.8,3.8611858869326516,0.96045197740113
25.9,3.8422188706544813,1.0
26.0,3.8294953554601734,1.0
26.1,3.8515795541480915,1.0
26.2,3.8374780777573445,0.9943502824858758
26.3,3.7596876850021013,0.8983050847457628
26.4,3.611092087958856,0.9774011299435028
26.5,3.5339066097882013,0.9774011299435028
26.6,3.497084501729391,0.9830508474576272
26.7,3.5500964861346547,1.0
26.8,3.5892161358258705,1.0
26.9,3.62700862251243,1.0
27.0,3.670289146729618,1.0
27.1,3.702304525893893,1.0
27.2,3.730151526126059,1.0
27.3,3.7260807387753743,1.0
27.4,3.726233312244499,0.9887005649717514
27.5,3.721953515914318,1.0
27.6,3.7102063514010126,1.0
27.7,3.716945920077677,0.9943502824858758
27.8,3.7060065263425903,0.9830508474576272
27.9,3.6736395029376254,0.9887005649717514
28.0,3.641173560358522,0.9887005649717514
28.1,3.6177112586926894,0.9830508474576272
28.2,3.571500215505073,0.9887005649717514
28.3,3.5564423576000523,0.9943502824858758
28.4,3.5498473723100386,1.0
28.5,3.6010218650319774,1.0
28.6,3.6522440532271,1.0
28.7,3.699187470156373,1.0
28.8,3.7480927859633972,1.0
28.9,3.800488318630126,1.0
29.0,3.8460797693146533,1.0
29.1,3.8478735779310895,1.0
29.2,3.8583932712769835,1.0
29.3,3.8718495627267755,1.0
29.4,3.9078653803958905,1.0
29.5,3.9285130178556904,1.0
29.6,3.941199821793703,1.0
29.7,3.9209092523795506,0.9548022598870056
29.8,3.8692404778414136,1.0
29.9,3.809412216557812,0.9548022598870056
30.0,3.7818737612817004,0.9943502824858758
30.1,3.7503396377769858,0.9943502824858758
30.2,3.733969706348824,1.0
30.3,3.7543357251996032,0.9830508474576272
30.4,3.7701718439500356,0.9943502824858758
30.5,3.822941424699083,0.9943502824858758
30.6,3.8771837974325862,0.9943502824858758
30.7,3.918866204289524,1.0
30.8,3.941945476937341,1.0
30.9,3.9771461348147614,0.9943502824858758
31.0,4.041444881396268,0.9943502824858758
31.1,4.125924759345841,1.0
31.2,4.192068846162423,1.0
31.3,4.292888639012002,1.0
31.4,4.371024153432234,1.0
31.5,4.438134075653742,0.96045197740113
31.6,4.451053619931998,0.9717514124293786
31.7,4.497579024943711,1.0
31.8,4.598681178766895,0.9943502824858758
31.9,4.715571061324593,0.9548022598870056
32.0,4.801543960564457,0.9774011299435028
32.1,4.90113881774809,0.9887005649717514
32.2,4.950602163925574,0.9887005649717514
32.3,5.006238427034689,0.9943502824858758
32.4,5.089223388477405,0.9943502824858758
32.5,5.211662140147342,0.9943502824858758
32.6,5.308928967167041,0.9265536723163842
32.7,5.378499608544328,0.9661016949152542
32.8,5.381347940727342,0.9830508474576272
32.9,5.3969799355652945,0.9830508474576272
33.0,5.391004320027153,0.9830508474576272
33.1,5.407260521136374,1.0
33.2,5.46521792741085,1.0
33.3,5.487886369409444,1.0
33.4,5.516797844597828,0.9491525423728814
33.5,5.53035003437558,0.9774011299435028
33.6,5.657540761044945,0.5649717514124294
33.7,5.513151034976125,0.6440677966101694
33.8,5.533380212188449,0.7796610169491526
33.9,5.5695228575708216,0.903954802259887
34.0,5.5469975515845995,0.9491525423728814
34.1,5.527536599939609,0.9661016949152542
34.2,5.5095096746220715,0.9943502824858758
34.3,5.526516380931722,0.9943502824858758
34.4,5.61990657906531,0.9774011299435028
34.5,5.723060085320473,0.9830508474576272
34.6,5.764588785415406,0.9887005649717514
34.7,5.778305096830353,0.9887005649717514
34.8,5.812516180003705,0.9152542372881356
34.9,5.76847594067161,0.9548022598870056
35.0,5.716112042392128,0.9774011299435028
35.1,5.691620272762711,0.9830508474576272
35.2,5.709874674643575,0.9830508474576272
35.3,5.803548458984757,0.5988700564971752
35.4,5.833659555321933,0.6440677966101694
35.5,5.76190175054327,0.7288135593220338
35.6,5.704511395678539,0.768361581920904
35.7,5.679284086123118,0.9548022598870056
35.8,5.684416110518245,0.9548022598870056
35.9,5.715582850469416,0.9548022598870056
36.0,5.68714034971938,0.9887005649717514
36.1,5.691579954511219,0.9943502824858758
36.2,5.703574857965858,0.9943502824858758
36.3,5.743734133761537,0.9943502824858758
36.4,5.756800908564545,0.9943502824858758
36.5,5.707231331739516,0.9717514124293786
36.6,5.679747169149665,0.9717514124293786
36.7,5.6870222437433435,1.0
36.8,5.66244905247754,1.0
36.9,5.619927017094104,1.0
37.0,5.588997167627643,1.0
37.1,5.568422874365267,1.0
37.2,5.587691443321476,1.0
37.3,5.608072913723643,1.0
37.4,5.633191731069398,0.9830508474576272
37.5,5.640138062196597,0.9830508474576272
37.6,5.6130290237736125,1.0
37.7,5.571094260685447,1.0
37.8,5.5280136222228675,1.0
37.9,5.524163622391885,1.0
38.0,5.57487522152123,1.0
38.1,5.56578413291031,0.9943502824858758
38.2,5.540816644964579,0.9943502824858758
38.3,5.541993380974895,1.0
38.4,5.541440817049179,1.0
38.5,5.546878948738356,1.0
38.6,5.5577926144148595,1.0
38.7,5.500248426595392,0.9152542372881356
38.8,5.516854717739009,0.9378531073446328
38.9,5.524443318620057,0.9096045197740112
39.0,5.5392784330622975,0.9378531073446328
39.1,5.512101146949042,0.9491525423728814
39.2,5.46727340924276,0.9548022598870056
39.3,5.409258463665627,0.9548022598870056
39.4,5.359965362609136,0.96045197740113
39.5,5.380137728430673,0.9661016949152542
39.6,5.437823684889233,0.9717514124293786
39.7,5.662651467177006,0.5084745762711864
39.8,5.508586923370171,0.6384180790960452
39.9,5.485939619986315,0.8870056497175142
40.0,5.489971951215386,0.943502824858757
40.1,5.540040581009154,0.9548022598870056
40.2,5.5992757344726005,0.9491525423728814
40.3,5.5602893294920985,0.9491525423728814
40.4,5.50837080624413,0.9830508474576272
40.5,5.47095495668784,0.9943502824858758
40.6,5.440507605300848,0.9943502824858758
40.7,5.4196472023428335,0.9943502824858758
40.8,5.465581247572335,0.9717514124293786
40.9,5.475422088212632,0.9887005649717514
41.0,5.469160259383059,0.9322033898305084
41.1,5.4985706147567,0.9491525423728814
41.2,5.52762962624595,0.9661016949152542
41.3,5.525347936508834,0.9830508474576272
41.4,5.502480849302921,0.9830508474576272
41.5,5.45109637111419,0.9830508474576272
41.6,5.365705968770891,0.9887005649717514
41.7,5.335869022587205,0.9943502824858758
41.8,5.278413436362637,0.9491525423728814
41.9,5.2414296988677895,0.9661016949152542
42.0,5.249947892568854,0.9717514124293786
42.1,5.239681075935027,0.9717514124293786
42.2,5.242555328996092,0.9774011299435028
42.3,5.254395322177146,0.9887005649717514
42.4,5.234829332908798,0.9774011299435028
42.5,5.183976098890122,0.9887005649717514
42.6,5.160275645158734,0.9887005649717514
42.7,5.140038166157578,0.9887005649717514
42.8,5.108882086918888,0.9887005649717514
42.9,5.078158352302041,0.9887005649717514
43.0,5.0640124653446374,0.9887005649717514
43.1,5.100680103850765,0.9830508474576272
43.2,5.065948149193164,0.8926553672316384
43.3,5.099869931269602,0.9265536723163842
43.4,5.14734198043107,0.9548022598870056
43.5,5.158139585598516,0.9661016949152542
43.6,5.162682675850989,0.9887005649717514
43.7,5.164026371272322,0.9887005649717514
43.8,5.1309695768006165,0.9887005649717514
43.9,5.071871421822252,0.9943502824858758
44.0,5.056447381883412,0.9943502824858758
44.1,5.075819088754251,0.9943502824858758
44.2,5.082066505706756,0.9943502824858758
44.3,5.103508471302519,0.9830508474576272
44.4,5.1065166064278085,0.9943502824858758
44.5,5.112181097315811,0.9943502824858758
44.6,5.118066086712467,0.9548022598870056
44.7,5.080854874870838,0.96045197740113
44.8,5.048280155047415,0.9265536723163842
44.9,5.0891319596771964,0.9774011299435028
45.0,5.061675026227923,0.9887005649717514
45.1,5.059160158415823,0.9887005649717514
45.2,5.052620300200344,0.9887005649717514
45.3,5.0135841221176785,0.9830508474576272
45.4,4.998156227695305,0.9887005649717514
45.5,5.018715637774949,0.9774011299435028
45.6,4.9835256402713,0.943502824858757
45.7,4.971514429880692,0.9717514124293786
45.8,4.9380814527378565,0.9830508474576272
45.9,4.907235312680997,0.9830508474576272
46.0,4.877764599958284,0.9830508474576272
46.1,4.884938614617246,0.9830508474576272
46.2,4.8611719476402175,0.9830508474576272
46.3,4.843078486940376,0.9830508474576272
46.4,4.831083797627328,0.9830508474576272
46.5,4.82901639643698,0.9774011299435028
46.6,4.806473989493953,0.9774011299435028
46.7,4.792684978002981,0.9830508474576272
46.8,4.782976616991536,0.96045197740113
46.9,4.777880986891117,0.9774011299435028
47.0,4.813262129207812,0.9830508474576272
47.1,4.787887747264576,0.9830508474576272
47.2,4.786184145864092,0.9887005649717514
47.3,4.793238741460328,0.9887005649717514
47.4,4.741213901141354,0.9887005649717514
47.5,4.717554864814261,0.9887005649717514
47.6,4.720964581737116,0.9887005649717514
47.7,4.6632547488422365,0.9378531073446328
47.8,4.684264735767129,0.9717514124293786
47.9,4.6662647921776035,0.9717514124293786
48.0,4.652466270520175,0.9774011299435028
48.1,4.6385606426267145,0.9887005649717514
48.2,4.62654440820586,0.9830508474576272
48.3,4.622949668368317,0.9830508474576272
48.4,4.62661008835245,0.9830508474576272
48.5,4.613951559696676,0.847457627118644
48.6,4.6382038937001395,0.9774011299435028
48.7,4.643027457086073,0.9774011299435028
48.8,4.623677049637093,0.9661016949152542
48.9,4.6112739018916695,0.9774011299435028
49.0,4.593737791666978,0.9774011299435028
49.1,4.57340206154201,0.9774011299435028
49.2,4.584025409567809,0.9774011299435028
49.3,4.593571643796496,0.9774011299435028
49.4,4.570273582020977,0.9717514124293786
49.5,4.54487510479424,0.9661016949152542
49.6,4.519979683990824,0.9717514124293786
49.7,4.470305939507516,0.9661016949152542
49.8,4.5012595323205105,0.9661016949152542
49.9,4.485182654153995,0.9661016949152542
50.0,4.479990427717499,0.9717514124293786
50.1,4.448045321549292,0.9717514124293786
50.2,4.450476452443053,0.9717514124293786
50.3,4.455221396991165,0.9265536723163842
50.4,4.460070587912572,0.943502824858757
50.5,4.449989767102318,0.9265536723163842
50.6,4.453943545795675,0.9378531073446328
50.7,4.4390336774390855,0.9322033898305084
50.8,4.408724272010674,0.9378531073446328
50.9,4.366762846481243,0.943502824858757
51.0,4.370816479347503,0.6836158192090396
51.1,4.240343485572235,0.807909604519774
51.2,4.179568176128667,0.9096045197740112
51.3,4.070562366678962,0.9209039548022598
51.4,3.947455439410091,0.9265536723163842
51.5,3.7449843903678084,0.9096045197740112
51.6,3.5807390178980802,0.9378531073446328
51.7,3.4528895532194475,0.9548022598870056
51.8,3.350863795719894,0.9491525423728814
51.9,3.323402234036977,0.9491525423728814
52.0,3.2961347766762996,0.9491525423728814
52.1,3.260103476843753,0.9491525423728814
52.2,3.273888591667994,0.9491525423728814
52.3,3.377812083757667,0.9491525423728814
52.4,3.3477474512872774,0.9491525423728814
52.5,3.3130042212379363,0.9491525423728814
52.6,3.279119449967447,0.9491525423728814
52.7,3.2652145752357304,0.943502824858757
52.8,3.261272450920641,0.943502824858757
52.9,3.286061164406092,0.943502824858757
53.0,3.5215003764409785,0.943502824858757
53.1,3.780295004421877,0.943502824858757
53.2,3.8313480558910604,0.9378531073446328
53.3,3.6528542480651627,0.943502824858757
53.4,3.3921737654681428,0.9096045197740112
53.5,3.265151253410507,0.9378531073446328
53.6,3.26565881208705,0.9378531073446328
53.7,3.3101767657180408,0.9322033898305084
53.8,3.4115244655929513,0.9322033898305084
53.9,3.4743925809943224,0.9265536723163842
54.0,3.5046088683141394,0.9209039548022598
54.1,3.3744735005409754,0.9209039548022598
54.2,3.2764858207857004,0.9209039548022598
54.3,3.290763022357124,0.9209039548022598
54.4,3.3712619479259693,0.9152542372881356
54.5,3.3461888655290273,0.903954802259887
54.6,3.2937746620599118,0.9152542372881356
54.7,3.2871077505076713,0.9152542372881356
54.8,3.3265455168696456,0.9152542372881356
54.9,3.3976979487024854,0.9096045197740112
55.0,3.755167151255594,0.9096045197740112
55.1,4.192835689384536,0.8022598870056498
55.2,4.243847695814755,0.8870056497175142
55.3,4.240837473896307,0.9096045197740112
55.4,4.253929879623488,0.9096045197740112
55.5,4.199831451607447,0.903954802259887
55.6,4.107777038857004,0.8983050847457628
55.7,4.037629249003287,0.8983050847457628
55.8,4.011178671271877,0.8983050847457628
55.9,4.107832998256808,0.8983050847457628
56.0,4.205607638282713,0.8926553672316384
56.1,4.2568303402335275,0.8870056497175142
56.2,4.374501700914203,0.8813559322033898
56.3,4.425958194569774,0.8813559322033898
56.4,4.4240526355641,0.8700564971751412
56.5,4.374174076982558,0.8813559322033898
56.6,4.418894964372037,0.8813559322033898
56.7,4.42608545696159,0.864406779661017
56.8,4.451139871028259,0.8700564971751412
56.9,4.5180425487446785,0.8700564971751412
57.0,4.576883025768976,0.8531073446327684
57.1,4.641705321328049,0.8700564971751412
57.2,4.588236707828554,0.8700564971751412
57.3,4.32855163484162,0.8700564971751412
57.4,4.008790987075956,0.8700564971751412
57.5,3.690253566280076,0.8700564971751412
57.6,3.466818011538589,0.8700564971751412
57.7,3.337753805161842,0.8700564971751412
57.8,3.3029804844819672,0.8587570621468926
57.9,3.327270303655037,0.8587570621468926
58.0,3.3870800617646037,0.8587570621468926
58.1,3.535969488543925,0.8531073446327684
58.2,3.705875886373791,0.8531073446327684
58.3,3.8205177652792277,0.8531073446327684
58.4,3.8390182381644244,0.8531073446327684
58.5,3.8618055471767123,0.8531073446327684
58.6,3.857216526299481,0.8531073446327684
58.7,3.839082519586166,0.8531073446327684
58.8,3.843488307377456,0.8531073446327684
58.9,3.829533204121576,0.8531073446327684
59.0,3.815080783862017,0.8418079096045198
59.1,3.8048640427530014,0.8418079096045198
59.2,3.8000026600174674,0.8418079096045198
59.3,3.786158224233728,0.8418079096045198
59.4,3.8320571455972736,0.8418079096045198
59.5,3.9235184270716807,0.8418079096045198
59.6,4.108815344356612,0.8361581920903954
59.7,4.350708328759332,0.8305084745762712
59.8,4.637012969463438,0.8305084745762712
59.9,4.860447478844261,0.8248587570621468
60.0,4.940424655030992,0.8248587570621468
60.1,4.818406305582592,0.8305084745762712
60.2,4.665853668489862,0.8305084745762712
60.3,4.4712747342774115,0.8248587570621468
60.4,4.3085509799468715,0.8135593220338984
60.5,4.176976576643145,0.8248587570621468
60.6,4.046897638548456,0.8305084745762712
60.7,3.9414953522309015,0.8305084745762712
60.8,3.8864728097824552,0.8192090395480226
60.9,3.83562727536524,0.7966101694915254
61.0,3.7640369444965365,0.8022598870056498
61.1,3.734231747226762,0.807909604519774
61.2,3.7570394678147068,0.8022598870056498
61.3,3.7943347869961954,0.7909604519774012
61.4,3.7706961663908554,0.7796610169491526
61.5,3.744036520866199,0.768361581920904
61.6,3.734682343054196,0.7457627118644068
61.7,3.7520908838609057,0.7570621468926554
61.8,3.794633559598768,0.7457627118644068
61.9,3.8595381073211428,0.7457627118644068
62.0,3.9202503894854637,0.7231638418079096
62.1,3.93306838272459,0.7288135593220338
62.2,3.870017834933772,0.7288135593220338
62.3,3.834976637582578,0.7175141242937854
62.4,3.8043937247607467,0.7062146892655368
62.5,3.779034387984515,0.7005649717514124
62.6,3.793270651219339,0.6779661016949152
62.7,3.776149560463541,0.672316384180791
62.8,3.7348167099344476,0.672316384180791
62.9,3.6890360142232743,0.6666666666666666
63.0,3.6712716939821957,0.6610169491525424
63.1,3.6183721484205025,0.6610169491525424
63.2,3.6050477837653627,0.6497175141242938
63.3,3.5976752985546,0.6440677966101694
63.4,3.5906142154283276,0.632768361581921
63.5,3.609271315470237,0.6214689265536724
63.6,3.613131980827475,0.615819209039548
63.7,3.5653955735010197,0.6045197740112994
63.8,3.5213538452946405,0.6045197740112994
63.9,3.4896579015672393,0.5988700564971752
64.0,3.435788793252151,0.5932203389830508
64.1,3.4296171936746065,0.5875706214689266
64.2,3.4337331426568327,0.5649717514124294
64.3,3.4143599992195606,0.559322033898305
64.4,3.426182213313918,0.5480225988700564
64.5,3.394260969785903,0.5254237288135594
64.6,3.3733516548185922,0.519774011299435
64.7,3.3972544117843326,0.5141242937853108
